<?xml version="1.0" encoding="UTF-8"?>
<svg height="128px" viewBox="0 0 128 128" width="128px" xmlns="http://www.w3.org/2000/svg" xmlns:xlink="http://www.w3.org/1999/xlink">
    <defs>
        <clipPath id="a">
            <path d="m 64 32 h 60 v 64 h -60 z m 0 0"/>
        </clipPath>
        <clipPath id="b">
            <path d="m 64 4 c 33.136719 0 60 26.863281 60 60 v 2 c 0 33.136719 -26.863281 60 -60 60 s -60 -26.863281 -60 -60 v -2 c 0 -33.136719 26.863281 -60 60 -60 z m 0 0"/>
        </clipPath>
        <clipPath id="c">
            <path d="m 64 64 h 56 v 62 h -56 z m 0 0"/>
        </clipPath>
        <clipPath id="d">
            <path d="m 64 4 c 33.136719 0 60 26.863281 60 60 v 2 c 0 33.136719 -26.863281 60 -60 60 s -60 -26.863281 -60 -60 v -2 c 0 -33.136719 26.863281 -60 60 -60 z m 0 0"/>
        </clipPath>
        <clipPath id="e">
            <path d="m 64 4 h 56 v 60 h -56 z m 0 0"/>
        </clipPath>
        <clipPath id="f">
            <path d="m 64 4 c 33.136719 0 60 26.863281 60 60 v 2 c 0 33.136719 -26.863281 60 -60 60 s -60 -26.863281 -60 -60 v -2 c 0 -33.136719 26.863281 -60 60 -60 z m 0 0"/>
        </clipPath>
        <clipPath id="g">
            <path d="m 8 4 h 56 v 60 h -56 z m 0 0"/>
        </clipPath>
        <clipPath id="h">
            <path d="m 64 4 c 33.136719 0 60 26.863281 60 60 v 2 c 0 33.136719 -26.863281 60 -60 60 s -60 -26.863281 -60 -60 v -2 c 0 -33.136719 26.863281 -60 60 -60 z m 0 0"/>
        </clipPath>
        <clipPath id="i">
            <path d="m 4 32 h 60 v 64 h -60 z m 0 0"/>
        </clipPath>
        <clipPath id="j">
            <path d="m 64 4 c 33.136719 0 60 26.863281 60 60 v 2 c 0 33.136719 -26.863281 60 -60 60 s -60 -26.863281 -60 -60 v -2 c 0 -33.136719 26.863281 -60 60 -60 z m 0 0"/>
        </clipPath>
        <clipPath id="k">
            <path d="m 8 64 h 56 v 62 h -56 z m 0 0"/>
        </clipPath>
        <clipPath id="l">
            <path d="m 64 4 c 33.136719 0 60 26.863281 60 60 v 2 c 0 33.136719 -26.863281 60 -60 60 s -60 -26.863281 -60 -60 v -2 c 0 -33.136719 26.863281 -60 60 -60 z m 0 0"/>
        </clipPath>
        <filter id="m" height="100%" width="100%" x="0%" y="0%">
            <feColorMatrix in="SourceGraphic" type="matrix" values="0 0 0 0 1 0 0 0 0 1 0 0 0 0 1 0 0 0 1 0"/>
        </filter>
        <mask id="n">
            <g filter="url(#m)">
                <rect fill-opacity="0.2" height="128" width="128"/>
            </g>
        </mask>
        <mask id="o">
            <g filter="url(#m)">
                <rect fill-opacity="0.1" height="128" width="128"/>
            </g>
        </mask>
        <mask id="p">
            <g filter="url(#m)">
                <rect fill-opacity="0.6" height="128" width="128"/>
            </g>
        </mask>
        <mask id="q">
            <g filter="url(#m)">
                <rect fill-opacity="0.6" height="128" width="128"/>
            </g>
        </mask>
        <mask id="r">
            <g filter="url(#m)">
                <rect fill-opacity="0.6" height="128" width="128"/>
            </g>
        </mask>
        <linearGradient id="s" gradientUnits="userSpaceOnUse" x1="114.76651433332" x2="86.48214233332" y1="49.50878416694" y2="21.22441216694">
            <stop offset="0" stop-color="#241f31"/>
            <stop offset="1" stop-color="#3d3846"/>
        </linearGradient>
        <clipPath id="t">
            <path d="m 64 32 h 60 v 64 h -60 z m 0 0"/>
        </clipPath>
        <clipPath id="u">
            <path d="m 64 4 c 33.136719 0 60 26.863281 60 60 v 2 c 0 33.136719 -26.863281 60 -60 60 s -60 -26.863281 -60 -60 v -2 c 0 -33.136719 26.863281 -60 60 -60 z m 0 0"/>
        </clipPath>
        <clipPath id="v">
            <path d="m 64 64 h 56 v 62 h -56 z m 0 0"/>
        </clipPath>
        <clipPath id="w">
            <path d="m 64 4 c 33.136719 0 60 26.863281 60 60 v 2 c 0 33.136719 -26.863281 60 -60 60 s -60 -26.863281 -60 -60 v -2 c 0 -33.136719 26.863281 -60 60 -60 z m 0 0"/>
        </clipPath>
        <clipPath id="x">
            <path d="m 64 4 h 56 v 60 h -56 z m 0 0"/>
        </clipPath>
        <clipPath id="y">
            <path d="m 64 4 c 33.136719 0 60 26.863281 60 60 v 2 c 0 33.136719 -26.863281 60 -60 60 s -60 -26.863281 -60 -60 v -2 c 0 -33.136719 26.863281 -60 60 -60 z m 0 0"/>
        </clipPath>
        <clipPath id="z">
            <path d="m 8 4 h 56 v 60 h -56 z m 0 0"/>
        </clipPath>
        <clipPath id="A">
            <path d="m 64 4 c 33.136719 0 60 26.863281 60 60 v 2 c 0 33.136719 -26.863281 60 -60 60 s -60 -26.863281 -60 -60 v -2 c 0 -33.136719 26.863281 -60 60 -60 z m 0 0"/>
        </clipPath>
        <clipPath id="B">
            <path d="m 4 32 h 60 v 64 h -60 z m 0 0"/>
        </clipPath>
        <clipPath id="C">
            <path d="m 64 4 c 33.136719 0 60 26.863281 60 60 v 2 c 0 33.136719 -26.863281 60 -60 60 s -60 -26.863281 -60 -60 v -2 c 0 -33.136719 26.863281 -60 60 -60 z m 0 0"/>
        </clipPath>
        <clipPath id="D">
            <path d="m 8 64 h 56 v 62 h -56 z m 0 0"/>
        </clipPath>
        <clipPath id="E">
            <path d="m 64 4 c 33.136719 0 60 26.863281 60 60 v 2 c 0 33.136719 -26.863281 60 -60 60 s -60 -26.863281 -60 -60 v -2 c 0 -33.136719 26.863281 -60 60 -60 z m 0 0"/>
        </clipPath>
        <mask id="F">
            <g filter="url(#m)">
                <rect fill-opacity="0.2" height="128" width="128"/>
            </g>
        </mask>
        <clipPath id="G">
            <rect height="128" width="128"/>
        </clipPath>
        <g id="H" clip-path="url(#G)">
            <path d="m 4.050781 64.992188 c -0.019531 0.335937 -0.039062 0.671874 -0.050781 1.007812 c 0 33.136719 26.863281 60 60 60 s 60 -26.863281 60 -60 c -0.007812 -0.335938 -0.019531 -0.671875 -0.035156 -1.007812 c -0.542969 32.738281 -27.226563 58.992187 -59.964844 59.007812 c -32.734375 -0.023438 -59.410156 -26.277344 -59.949219 -59.007812 z m 0 0"/>
        </g>
        <mask id="I">
            <g filter="url(#m)">
                <rect fill-opacity="0.1" height="128" width="128"/>
            </g>
        </mask>
        <clipPath id="J">
            <rect height="128" width="128"/>
        </clipPath>
        <g id="K" clip-path="url(#J)">
            <path d="m 114.5625 14 c -2.519531 0.003906 -4.933594 1.015625 -6.703125 2.808594 l -0.003906 -0.003906 l -9.699219 9.699218 l -6.058594 -6.066406 c -1.417968 -1.414062 -2.832031 0 -2.832031 0 l -4.488281 4.492188 s -1.414063 1.414062 0 2.828124 l 6.734375 6.730469 l -35.511719 35.511719 c -3 4.5 -1.5 9 -6 13.5 l 4.5 4.5 c 4.5 -4.5 10.582031 -2.949219 13.5 -6 l 35.511719 -35.511719 l 6.722656 6.722657 c 1.414063 1.414062 2.828125 0 2.828125 0 l 4.488281 -4.488282 c 1.414063 -1.414062 0 -2.828125 0 -2.828125 l -6.0625 -6.0625 l 9.644531 -9.644531 l 0.054688 -0.050781 c 2.71875 -2.6875 3.546875 -6.753907 2.097656 -10.289063 c -1.453125 -3.539062 -4.898437 -5.847656 -8.722656 -5.847656 z m 0 0"/>
        </g>
        <mask id="L">
            <g filter="url(#m)">
                <rect fill-opacity="0.6" height="128" width="128"/>
            </g>
        </mask>
        <clipPath id="M">
            <rect height="128" width="128"/>
        </clipPath>
        <g id="N" clip-path="url(#M)">
            <path d="m 93.460938 30.539062 l -37.460938 37.460938 c -3 4.5 -1.5 9 -6 13.5 l 4.5 4.5 c 4.5 -4.5 10.582031 -2.949219 13.5 -6 l 37.460938 -37.460938 z m 0 0" fill="#ffffff"/>
        </g>
        <mask id="O">
            <g filter="url(#m)">
                <rect fill-opacity="0.6" height="128" width="128"/>
            </g>
        </mask>
        <clipPath id="P">
            <rect height="128" width="128"/>
        </clipPath>
        <g id="Q" clip-path="url(#P)">
            <path d="m 59 69.5 l 34.5 -34.5" fill="none" stroke="#ffffff" stroke-linecap="round" stroke-width="6"/>
        </g>
        <mask id="R">
            <g filter="url(#m)">
                <rect fill-opacity="0.6" height="128" width="128"/>
            </g>
        </mask>
        <clipPath id="S">
            <rect height="128" width="128"/>
        </clipPath>
        <g id="T" clip-path="url(#S)">
            <path d="m 59 67.164062 l 34.5 -34.5" fill="none" stroke="#ffffff" stroke-linecap="round" stroke-width="3"/>
        </g>
        <clipPath id="U">
            <rect height="128" width="128"/>
        </clipPath>
        <clipPath id="V">
            <rect height="128" width="128"/>
        </clipPath>
        <mask id="W">
            <g clip-path="url(#V)" filter="url(#m)">
                <g clip-path="url(#U)">
                    <g clip-path="url(#t)">
                        <g clip-path="url(#u)">
                            <path d="m 119.425781 32 c 11.433594 19.804688 11.433594 44.199219 0 64 l -55.425781 -32 z m 0 0" fill="#3584e4"/>
                        </g>
                    </g>
                    <g clip-path="url(#v)">
                        <g clip-path="url(#w)">
                            <path d="m 119.425781 96 c -11.433593 19.804688 -32.5625 32 -55.425781 32 v -64 z m 0 0" fill="#a347ba"/>
                        </g>
                    </g>
                    <g clip-path="url(#x)">
                        <g clip-path="url(#y)">
                            <path d="m 64 0 c 22.863281 0 43.992188 12.199219 55.425781 32 l -55.425781 32 z m 0 0" fill="#33d17a"/>
                        </g>
                    </g>
                    <g clip-path="url(#z)">
                        <g clip-path="url(#A)">
                            <path d="m 8.574219 32 c 11.433593 -19.800781 32.558593 -32 55.425781 -32 v 64 z m 0 0" fill="#f6d32d"/>
                        </g>
                    </g>
                    <g clip-path="url(#B)">
                        <g clip-path="url(#C)">
                            <path d="m 8.574219 96 c -11.433594 -19.800781 -11.433594 -44.195312 0 -64 l 55.425781 32 z m 0 0" fill="#ff7800"/>
                        </g>
                    </g>
                    <g clip-path="url(#D)">
                        <g clip-path="url(#E)">
                            <path d="m 64 128 c -22.867188 0 -43.992188 -12.195312 -55.425781 -32 l 55.425781 -32 z m 0 0" fill="#ed333b"/>
                        </g>
                    </g>
                    <use mask="url(#F)" xlink:href="#H"/>
                    <use mask="url(#I)" xlink:href="#K"/>
                    <use mask="url(#L)" xlink:href="#N"/>
                    <use mask="url(#O)" xlink:href="#Q"/>
                    <use mask="url(#R)" xlink:href="#T"/>
                    <path d="m 114.5625 12 c -2.519531 0.003906 -4.933594 1.015625 -6.703125 2.808594 l -0.003906 -0.003906 l -9.699219 9.695312 l -6.0625 -6.0625 c -1.414062 -1.410156 -2.828125 0 -2.828125 0 l -4.488281 4.492188 s -1.414063 1.410156 0 2.824218 l 25.457031 25.457032 c 1.414063 1.414062 2.828125 0 2.828125 0 l 4.488281 -4.488282 c 1.414063 -1.414062 0 -2.828125 0 -2.828125 l -6.0625 -6.0625 l 9.644531 -9.640625 l 0.054688 -0.054687 l -0.003906 -0.003907 c 1.796875 -1.769531 2.804687 -4.183593 2.808594 -6.703124 c 0 -5.207032 -4.222657 -9.429688 -9.429688 -9.429688 z m 0 0" fill="url(#s)" fill-rule="evenodd"/>
                </g>
            </g>
        </mask>
        <mask id="X">
            <g filter="url(#m)">
                <rect fill-opacity="0.8" height="128" width="128"/>
            </g>
        </mask>
        <linearGradient id="Y" gradientTransform="matrix(0 0.37 -0.98462 0 295.38501 -30.360001)" gradientUnits="userSpaceOnUse" x1="300" x2="428" y1="235" y2="235">
            <stop offset="0" stop-color="#f9f06b"/>
            <stop offset="1" stop-color="#f5c211"/>
        </linearGradient>
        <clipPath id="Z">
            <rect height="128" width="128"/>
        </clipPath>
        <clipPath id="aa">
            <rect height="128" width="128"/>
        </clipPath>
    </defs>
    <g clip-path="url(#a)">
        <g clip-path="url(#b)">
            <path d="m 119.425781 32 c 11.433594 19.804688 11.433594 44.199219 0 64 l -55.425781 -32 z m 0 0" fill="#3584e4"/>
        </g>
    </g>
    <g clip-path="url(#c)">
        <g clip-path="url(#d)">
            <path d="m 119.425781 96 c -11.433593 19.804688 -32.5625 32 -55.425781 32 v -64 z m 0 0" fill="#a347ba"/>
        </g>
    </g>
    <g clip-path="url(#e)">
        <g clip-path="url(#f)">
            <path d="m 64 0 c 22.863281 0 43.992188 12.199219 55.425781 32 l -55.425781 32 z m 0 0" fill="#33d17a"/>
        </g>
    </g>
    <g clip-path="url(#g)">
        <g clip-path="url(#h)">
            <path d="m 8.574219 32 c 11.433593 -19.800781 32.558593 -32 55.425781 -32 v 64 z m 0 0" fill="#f6d32d"/>
        </g>
    </g>
    <g clip-path="url(#i)">
        <g clip-path="url(#j)">
            <path d="m 8.574219 96 c -11.433594 -19.800781 -11.433594 -44.195312 0 -64 l 55.425781 32 z m 0 0" fill="#ff7800"/>
        </g>
    </g>
    <g clip-path="url(#k)">
        <g clip-path="url(#l)">
            <path d="m 64 128 c -22.867188 0 -43.992188 -12.195312 -55.425781 -32 l 55.425781 -32 z m 0 0" fill="#ed333b"/>
        </g>
    </g>
    <use mask="url(#n)" xlink:href="#H"/>
    <use mask="url(#o)" xlink:href="#K"/>
    <use mask="url(#p)" xlink:href="#N"/>
    <use mask="url(#q)" xlink:href="#Q"/>
    <use mask="url(#r)" xlink:href="#T"/>
    <path d="m 114.5625 12 c -2.519531 0.003906 -4.933594 1.015625 -6.703125 2.808594 l -0.003906 -0.003906 l -9.699219 9.695312 l -6.0625 -6.0625 c -1.414062 -1.410156 -2.828125 0 -2.828125 0 l -4.488281 4.492188 s -1.414063 1.410156 0 2.824218 l 25.457031 25.457032 c 1.414063 1.414062 2.828125 0 2.828125 0 l 4.488281 -4.488282 c 1.414063 -1.414062 0 -2.828125 0 -2.828125 l -6.0625 -6.0625 l 9.644531 -9.640625 l 0.054688 -0.054687 l -0.003906 -0.003907 c 1.796875 -1.769531 2.804687 -4.183593 2.808594 -6.703124 c 0 -5.207032 -4.222657 -9.429688 -9.429688 -9.429688 z m 0 0" fill="url(#s)" fill-rule="evenodd"/>
    <g clip-path="url(#aa)" mask="url(#W)">
        <g clip-path="url(#Z)" mask="url(#X)">
            <path d="m 128 80.640625 v 47.359375 h -128 v -47.359375 z m 0 0" fill="url(#Y)"/>
            <path d="m 13.308594 80.640625 l 47.355468 47.359375 h 21.214844 l -47.359375 -47.359375 z m 42.421875 0 l 47.363281 47.359375 h 21.214844 l -47.363282 -47.359375 z m 42.429687 0 l 29.839844 29.839844 v -21.210938 l -8.628906 -8.628906 z m -98.160156 7.90625 v 21.214844 l 18.238281 18.238281 h 21.214844 z m 0 0"/>
        </g>
    </g>
</svg>
